; Engine configuration file.
; It's best edited using the editor UI and not directly,
; since the parameters that go here are not all obvious.
;
; Format:
;   [section] ; section goes between []
;   param=value ; assign values to parameters

config_version=4

_global_script_classes=[ {
"base": "Resource",
"class": "Action",
"language": "GDScript",
"path": "res://scripts/base_classes/action.gd"
}, {
"base": "Resource",
"class": "ActionEffect",
"language": "GDScript",
"path": "res://scripts/base_classes/action_effect.gd"
}, {
"base": "Resource",
"class": "BaseRobotData",
"language": "GDScript",
"path": "res://scripts/base_classes/base_robot_data.gd"
}, {
"base": "ActionEffect",
"class": "ChangeLife",
"language": "GDScript",
"path": "res://scripts/action_effects/change_life.gd"
}, {
"base": "Node",
"class": "Dialogic",
"language": "GDScript",
"path": "res://addons/dialogic/Other/DialogicClass.gd"
}, {
"base": "Control",
"class": "DialogicBackgroundMusic",
"language": "GDScript",
"path": "res://addons/dialogic/Nodes/BackgroundMusic.gd"
}, {
"base": "Node",
"class": "DialogicDefinitionsUtil",
"language": "GDScript",
"path": "res://addons/dialogic/Other/DialogicDefinitionsUtil.gd"
}, {
"base": "Reference",
"class": "DialogicResources",
"language": "GDScript",
"path": "res://addons/dialogic/Other/DialogicResources.gd"
}, {
"base": "Reference",
"class": "DialogicUtil",
"language": "GDScript",
"path": "res://addons/dialogic/Other/DialogicUtil.gd"
}, {
"base": "Resource",
"class": "Robot",
"language": "GDScript",
"path": "res://scripts/base_classes/robot.gd"
} ]
_global_script_class_icons={
"Action": "",
"ActionEffect": "",
"BaseRobotData": "",
"ChangeLife": "",
"Dialogic": "",
"DialogicBackgroundMusic": "",
"DialogicDefinitionsUtil": "",
"DialogicResources": "",
"DialogicUtil": "",
"Robot": ""
}

[application]

config/name="Thalassonaut"
config/icon="res://icon.png"

[autoload]

Debug="*res://scripts/singletons/debug.gd"
GlobalData="*res://scripts/singletons/global_data.gd"

[debug]

gdscript/warnings/unused_class_variable=true

[display]

window/size/width=1920
window/size/height=1080
window/size/test_width=1280
window/size/test_height=720
window/dpi/allow_hidpi=true
window/stretch/mode="2d"
window/stretch/aspect="keep"

[editor]

convert_text_resources_to_binary_on_export=true

[physics]

common/enable_pause_aware_picking=true

[rendering]

environment/default_environment="res://default_env.tres"
